{	
	"database" : "planet",
	"username" : "gisuser",
	"password" : "****",	
	"port" : "3001", 
	"geometry_field" : "way",
	"queries": {
		"polygon": "(SELECT level , way , (tags -> 'room')::text as room , (tags -> 'indoor')::text as indoor , (tags -> 'public_transport')::text as public_transport , (tags -> 'railway')::text as railway, (tags -> 'building:part')::text as building_part , (tags -> 'stairwell')::text as stairwell , (tags -> 'highway')::text as highway , (tags -> 'building')::text as building, (tags -> 'shop')::text as shop, (tags -> 'amenity')::text as amenity, (tags -> 'access')::text as access FROM planet_osm_polygon) AS subquery",
        "point": "(SELECT  level, way, (tags -> 'vending')::text as vending , (tags -> 'public_transport')::text as public_transport , (tags -> 'highway')::text as highway , (tags -> 'door')::text as door ,(tags -> 'shop')::text as shop, (tags -> 'name')::text as name, (tags -> 'amenity')::text as amenity, (tags -> 'local_ref')::text as local_ref FROM planet_osm_point) AS subquery",
        "line": "(SELECT level ,way, (tags -> 'width')::text as width , (tags -> 'highway')::text as highway ,  (tags -> 'barrier')::text as barrier,(tags -> 'door')::text as door , (tags -> 'railway')::text as railway, (tags -> 'incline')::text as incline,(tags -> 'conveying')::text as conveying FROM planet_osm_line) AS subquery",
		"label": "(SELECT level, St_centroid(way) as way, (tags -> 'room')::text as room, (tags -> 'highway')::text as highway , (tags -> 'public_transport')::text as public_transport ,(tags -> 'name')::text as name , (tags -> 'shop')::text as shop, (tags -> 'amenity')::text as amenity FROM planet_osm_polygon) AS subquery"
	}
	
}
